# Blender v2.66 (sub 1) OBJ File: ''
# www.blender.org
mtllib Plane.mtl
o Plane
v 4.699729 -1.324004 4.699729
v -4.699729 -1.324004 4.699729
v 4.699729 -1.324004 -4.699729
v -4.699729 -1.324004 -4.699729
vn 0.000000 1.000000 -0.000000
usemtl None
s off
f 2//1 1//1 3//1
f 4//1 2//1 3//1
